10.33.81.194
10.33.81.195
10.33.81.196
10.33.81.197
10.33.81.198
10.33.81.204
10.33.81.206
10.33.81.210
10.33.81.211
10.33.81.213
10.33.81.216
10.33.81.219
10.33.81.220
10.33.81.225
10.33.81.230
10.33.81.233
10.33.81.234
10.33.81.237
10.33.81.240
10.33.81.246
10.33.81.247
